%YAML 1.1
%TAG !u! tag:unity3d.com,2011:
--- !u!114 &11400000
MonoBehaviour:
  m_ObjectHideFlags: 0
  m_CorrespondingSourceObject: {fileID: 0}
  m_PrefabInstance: {fileID: 0}
  m_PrefabAsset: {fileID: 0}
  m_GameObject: {fileID: 0}
  m_Enabled: 1
  m_EditorHideFlags: 0
  m_Script: {fileID: 11500000, guid: b2c388af0a035b74c8fc75d6bf7eabfb, type: 3}
  m_Name: Pills
  m_EditorClassIdentifier: 
  id: 1
  type: Medical
  description: Pills
  icon: {fileID: 21300000, guid: 693bfe0eb9448b046be779f591cffec3, type: 3}
  pickedUp: 0
  equipped: 0
  itemManager: {fileID: 0}
  item: {fileID: 0}
  nothingToDo: {fileID: 0}
  playersItem: 0
